"merchant_warmachine_3"
{
	"Name"	"Scientist Mossman"

	"Weapons"
	{
		"weapon_ar2" "30"
		"weapon_gauss" "75"
		"weapon_crossbow" "30"
		"weapon_alyxgun" "15"
		"weapon_manhack" "5"
		"weapon_stunstick" "5"
		"weapon_slam" "5"
		"weapon_pistol" "5"
		"weapon_smg1" "15"
		"weapon_healer" "15"
		"weapon_frag" "5"
		"weapon_shotgun" "20"
		"weapon_uzi" "15"
		"weapon_357" "15"
		"weapon_rpg" "40"
		"weapon_sniperrifle" "35"
	}
	"Items"
	{
		"item_ammo_pistol" "1"
		"item_ammo_357" "2"
		"item_box_buckshot" "3"
		"item_ammo_tau" "10"
		"item_ammo_smg1_grenade" "4"
		"item_ammo_ar2_altfire" "4"
		"item_rpg_round" "6"
		"item_ammo_crossbow" "3"
		"item_box_alyxrounds" "2"
		"item_healthkit" "3"
		"item_battery" "3"
		"item_shield" "20"
		"item_cloak" "30"
		"item_box_sniper_rounds" "7"
	}
}