//FAMAS
"WeaponData"
{
	// Weapon data is loaded by both the Game and Client DLLs.
	"printname"			"FAMAS"
	"viewmodel"			"models/weapons/v_rif_famas.mdl"
	"playermodel"			"models/weapons/w_rif_famas.mdl"
	"anim_prefix"			"ar2"
	"bucket"			"4"
	"bucket_position"		"8"

	"clip_size"			"25"
	"clip2_size"			"0"

	"default_clip"			"90"
	"default_clip2"			"0"

	"primary_ammo"			"556mm"
	"secondary_ammo"		"None"

	"weight"			"5"
	"item_flags"			"0"

	"BuiltRightHanded" 		"1"
	"AllowFlipping" 		"1"

	"csviewmodel"			"1"

	"ironsightoffset"
	{
		"x"   "-5.00"
		"y"   "-4.65"
		"z"   "1.3"
   	}

	// Sounds for the weapon. There is a max of 16 sounds per category (i.e. max 16 "single_shot" sounds)
	"SoundData"
	{
		"reload_npc"		"Weapon_AR2.NPC_Reload"
		"empty"			"Default.ClipEmpty_Rifle"
		"single_shot"		"Weapon_famas.Single"
		"single_shot_npc"	"Weapon_famas.Single"
		"special1"		"Weapon_famas.Single"
	}

	// Weapon Sprite data is loaded by the Client DLL.
	"TextureData"
	{
		"weapon"
		{
				"font"		"CSWeaponIcons"
				"character"	"t"
		}
		"weapon_s"
		{	
				"font"		"CSWeaponIconsSelected"
				"character"	"t"
		}
		"ammo"
		{
				"font"		"WeaponIcons"
				"character"	"u"
		}
		"crosshair"
		{
				"font"		"Crosshairs"
				"character"	"Q"
		}
		"autoaim"
		{
				"file"		"sprites/crosshairs"
				"x"			"0"
				"y"			"48"
				"width"		"24"
				"height"	"24"
		}
	}
	"Advanced" // only for Weapon_Scripted
	{

	// **Primary Attack**

		// 0 = none, 1 = Basic Bullet, 2 = Burst, 3 = shotgun, 4 = autoshotgun, 5 = laser, 6 = warp
		"FireType1"	"1"


		// Rate of Weapons Fire ( Not for laser or warp )
		"FireRate1"	"0.11"

		// Allow a refire as fast as the player can click, Basic Bullet Only.
		"FastFire1"	"0"

		// Allow Fire Underwater?
		"FireUnderWater1"	"0"

		// For Bullet accuracy
		"FireCone1"		"2" // Starting Value ( 0-20 )
		"FireConeLerp1"		"1" // Bool
		"FireConeLerpto1"	"5" // Value to lerp accuracy too ( 0-20 )

	// **Secondary Attack**

		// 0 = none, 1 = Basic Bullet, 2 = Burst, 3 = shotgun, 4 = autoshotgun, 5 = laser, 6 = warp, 8 = scope
		"FireType2"	"2" //0

		// Rate of Weapons Fire ( Not for laser or warp )
		"FireRate2"	"0.6"

		// Allow a refire as fast as the player can click, Basic Bullet Only.
		"FastFire2"	"0"

		// Allow Fire Underwater?
		"FireUnderWater2"	"0"

		// How many bullets in a burst. ( For Burst Weapon Only! )
		"BurstAmount2"	"3"
		"BetweenBurstTime2"	"0.05"

		// Secondary Fire uses Secondary Ammo Type. If 0, will use primary ammo.
		"SecondaryAmmoUsed"	"0"

		// For Bullet accuracy
		"FireCone2"		"2" // Starting Value ( 0-20 )
		"FireConeLerp2"		"1" // Bool
		"FireConeLerpto2"	"6" // Value to lerp accuracy too ( 0-20 )

	// **Global Weapon Settings**

		// Number of Recoil Animations, weapon models with ACT_VM_RECOIL animations.
		// ( Only if a weapon has recoil animations, Not for laser or warp )
		"NumberOfRecoilAnims"	"0"

		// Shots fired till next recoil animation. ( Only if a weapon has recoil animations )
		"RecoilIncrementSpeed"	"1"

		// 1 = Pistol, 2 = AR2, 3 = crossbow, 4 = physgun, 5 = shotgun, 6 = smg1
		// This is the player animation set that will be used on all players you view ingame.
		"PlayerAnimationSet"	"2"
	}
}