"WeaponData"
{
	// Weapon data is loaded by both the Game and Client DLLs.
	"printname"			"DESERT EAGLE with LAM"
	"viewmodel"			"models/weapons/oc_back/v_hecudeagle.mdl"
	"playermodel"			"models/weapons/oc_back/w_hecudeagle.mdl"
	"anim_prefix"			"python"
	"bucket"			"1"
	"bucket_position"		"3"

	"clip_size"			"7"
	"clip2_size"			"-1"

	"default_clip"			"36"
	"default_clip2"			"-1"

	"primary_ammo"			"357"
	"secondary_ammo"		"None"

	"weight"			"2"
	"item_flags"			"4"

	"BuiltRightHanded"		"1"
	"AllowFlipping"			"1"

	"csviewmodel"			"0"

	"fov"                           "54"

   	"ironsightoffset"
	{
		"x"   "-2.00"
		"y"   "-2.1"
		"z"   "0.9"
   	}


	// Sounds for the weapon. There is a max of 16 sounds per category (i.e. max 16 "single_shot" sounds)
	"SoundData"
	{
		"reload_npc"		"Weapon_Pistol.NPC_Reload"
		"empty"			"Weapon_Pistol.Empty"
		"single_shot"		"Weapon_deagle.shoot"
		"single_shot_npc"	"Weapon_deagle.shoot"
		
	}

	// Weapon Sprite data is loaded by the Client DLL.
	"TextureData"
	{"weapon"
		{
				"font"		"WeaponIcons"
				"character"	"e"
		}
		"weapon_s"
		{	
				"font"		"WeaponIconsSelected"
				"character"	"e"
		}
		"ammo"
		{
				"font"		"WeaponIcons"
				"character"	"q"
		}
		"crosshair"
		{
				"font"		"Crosshairs"
				"character"	"Q"
		}
		"autoaim"
		{
				"file"		"sprites/crosshairs"
				"x"			"0"
				"y"			"48"
				"width"		"24"
				"height"	"24"
		}
	}
	"Advanced" // only for Weapon_Scripted
	{

	// **Primary Attack**

		// 0 = none, 1 = Basic Bullet, 2 = Burst, 3 = shotgun, 4 = autoshotgun, 5 = laser, 6 = warp
		"FireType1"	"1"


		// Rate of Weapons Fire ( Not for laser or warp )
		"FireRate1"	"0.6"

		// Allow a refire as fast as the player can click, Single Only.
		"FastFire1"	"1"

		// Allow Fire Underwater?
		"FireUnderWater1"	"1"

		// For Bullet accuracy
		"FireCone1"		"1" // Starting Value ( 0-20 )
		"FireConeLerp1"		"0" // Bool

	// **Secondary Attack**

		// 0 = none, 1 = Basic Bullet, 2 = Burst, 3 = shotgun, 4 = autoshotgun, 5 = laser, 6 = warp, 8 = scope
		"FireType2"	"0"

	// **Global Weapon Settings**

		// Number of Recoil Animations, weapon models with ACT_VM_RECOIL animations.
		// ( Only if a weapon has recoil animations, Not for laser or warp )
		"NumberOfRecoilAnims"	"0"

		// Shots fired till next recoil animation. ( Only if a weapon has recoil animations )
		"RecoilIncrementSpeed"	"1"

		// 1 = Pistol, 2 = AR2, 3 = crossbow, 4 = physgun, 5 = shotgun, 6 = smg1
		// This is the player animation set that will be used on all players you view ingame.
		"PlayerAnimationSet"	"1"

		// **NPC Weapon Settings**

		// NPCs use a ShotRegulator in code, these settings corrispond with it.
		"NPCRateofFire"		"0.4"
		"NPCMinBursts"		"1"
		"NPCMaxBursts"		"7"
		"NPCMinRest"		"0.3"
		"NPCMaxRest"		"0.6"

		// Range the NPC can fire this weapon at, if the player is less than min, the npc cant fire and will try to get a better vantage point.
		"NPCMinRange1"		"2"
		"NPCMaxRange1"		"1500"
		"NPCMinRange2"		"2"
		"NPCMaxRange2"		"200"

	}
}