"oc_systems2B-2"
{
	SpawnItems
	{
   	 "weapon_ar2" "1"
  	 "weapon_smg1" "1"
   	 "weapon_shotgun" "1"
   	 "weapon_crowbar" "1"
   	 "weapon_pistol" "1"
   	 "weapon_healer" "1"
   	 "item_ammo_smg1" "5"
   	 "item_ammo_ar2" "2"
   	 "item_ammo_pistol" "4"
	}
}
